%!PS-Adobe-3.0 EPSF-3.0
%%Creator: MATLAB, The MathWorks, Inc. Version 8.1.0.604 (R2013a). Operating System: Darwin 14.3.0 Darwin Kernel Version 14.3.0: Mon Mar 23 11:59:05 PDT 2015; root:xnu-2782.20.48~5/RELEASE_X86_64 x86_64.
%%Title: ./stallPlot7.eps
%%CreationDate: 07/06/2015  22:09:15
%%DocumentNeededFonts: Helvetica
%%DocumentProcessColors: Cyan Magenta Yellow Black
%%LanguageLevel: 2
%%Pages: 1
%%BoundingBox:    11   110   574   681
%%EndComments

%%BeginProlog
% MathWorks dictionary
/MathWorks 160 dict begin
% definition operators
/bdef {bind def} bind def
/ldef {load def} bind def
/xdef {exch def} bdef
/xstore {exch store} bdef
% operator abbreviations
/c  /clip ldef
/cc /concat ldef
/cp /closepath ldef
/gr /grestore ldef
/gs /gsave ldef
/mt /moveto ldef
/np /newpath ldef
/cm /currentmatrix ldef
/sm /setmatrix ldef
/rm /rmoveto ldef
/rl /rlineto ldef
/s {show newpath} bdef
/sc {setcmykcolor} bdef
/sr /setrgbcolor ldef
/sg /setgray ldef
/w /setlinewidth ldef
/j /setlinejoin ldef
/cap /setlinecap ldef
/rc {rectclip} bdef
/rf {rectfill} bdef
% page state control
/pgsv () def
/bpage {/pgsv save def} bdef
/epage {pgsv restore} bdef
/bplot /gsave ldef
/eplot {stroke grestore} bdef
% orientation switch
/portraitMode 0 def /landscapeMode 1 def /rotateMode 2 def
% coordinate system mappings
/dpi2point 0 def
% font control
/FontSize 0 def
/FMS {/FontSize xstore findfont [FontSize 0 0 FontSize neg 0 0]
  makefont setfont} bdef
/reencode {exch dup where {pop load} {pop StandardEncoding} ifelse
  exch dup 3 1 roll findfont dup length dict begin
  { 1 index /FID ne {def}{pop pop} ifelse } forall
  /Encoding exch def currentdict end definefont pop} bdef
/isroman {findfont /CharStrings get /Agrave known} bdef
/FMSR {3 1 roll 1 index dup isroman {reencode} {pop pop} ifelse
  exch FMS} bdef
/csm {1 dpi2point div -1 dpi2point div scale neg translate
 dup landscapeMode eq {pop -90 rotate}
  {rotateMode eq {90 rotate} if} ifelse} bdef
% line types: solid, dotted, dashed, dotdash
/SO { [] 0 setdash } bdef
/DO { [.5 dpi2point mul 4 dpi2point mul] 0 setdash } bdef
/DA { [6 dpi2point mul] 0 setdash } bdef
/DD { [.5 dpi2point mul 4 dpi2point mul 6 dpi2point mul 4
  dpi2point mul] 0 setdash } bdef
% macros for lines and objects
/L {lineto stroke} bdef
/MP {3 1 roll moveto 1 sub {rlineto} repeat} bdef
/AP {{rlineto} repeat} bdef
/PDlw -1 def
/W {/PDlw currentlinewidth def setlinewidth} def
/PP {closepath eofill} bdef
/DP {closepath stroke} bdef
/MR {4 -2 roll moveto dup  0 exch rlineto exch 0 rlineto
  neg 0 exch rlineto closepath} bdef
/FR {MR stroke} bdef
/PR {MR fill} bdef
/L1i {{currentfile picstr readhexstring pop} image} bdef
/tMatrix matrix def
/MakeOval {newpath tMatrix currentmatrix pop translate scale
0 0 1 0 360 arc tMatrix setmatrix} bdef
/FO {MakeOval stroke} bdef
/PO {MakeOval fill} bdef
/PD {currentlinewidth 2 div 0 360 arc fill
   PDlw -1 eq not {PDlw w /PDlw -1 def} if} def
/FA {newpath tMatrix currentmatrix pop translate scale
  0 0 1 5 -2 roll arc tMatrix setmatrix stroke} bdef
/PA {newpath tMatrix currentmatrix pop	translate 0 0 moveto scale
  0 0 1 5 -2 roll arc closepath tMatrix setmatrix fill} bdef
/FAn {newpath tMatrix currentmatrix pop translate scale
  0 0 1 5 -2 roll arcn tMatrix setmatrix stroke} bdef
/PAn {newpath tMatrix currentmatrix pop translate 0 0 moveto scale
  0 0 1 5 -2 roll arcn closepath tMatrix setmatrix fill} bdef
/vradius 0 def /hradius 0 def /lry 0 def
/lrx 0 def /uly 0 def /ulx 0 def /rad 0 def
/MRR {/vradius xdef /hradius xdef /lry xdef /lrx xdef /uly xdef
  /ulx xdef newpath tMatrix currentmatrix pop ulx hradius add uly
  vradius add translate hradius vradius scale 0 0 1 180 270 arc 
  tMatrix setmatrix lrx hradius sub uly vradius add translate
  hradius vradius scale 0 0 1 270 360 arc tMatrix setmatrix
  lrx hradius sub lry vradius sub translate hradius vradius scale
  0 0 1 0 90 arc tMatrix setmatrix ulx hradius add lry vradius sub
  translate hradius vradius scale 0 0 1 90 180 arc tMatrix setmatrix
  closepath} bdef
/FRR {MRR stroke } bdef
/PRR {MRR fill } bdef
/MlrRR {/lry xdef /lrx xdef /uly xdef /ulx xdef /rad lry uly sub 2 div def
  newpath tMatrix currentmatrix pop ulx rad add uly rad add translate
  rad rad scale 0 0 1 90 270 arc tMatrix setmatrix lrx rad sub lry rad
  sub translate rad rad scale 0 0 1 270 90 arc tMatrix setmatrix
  closepath} bdef
/FlrRR {MlrRR stroke } bdef
/PlrRR {MlrRR fill } bdef
/MtbRR {/lry xdef /lrx xdef /uly xdef /ulx xdef /rad lrx ulx sub 2 div def
  newpath tMatrix currentmatrix pop ulx rad add uly rad add translate
  rad rad scale 0 0 1 180 360 arc tMatrix setmatrix lrx rad sub lry rad
  sub translate rad rad scale 0 0 1 0 180 arc tMatrix setmatrix
  closepath} bdef
/FtbRR {MtbRR stroke } bdef
/PtbRR {MtbRR fill } bdef
/stri 6 array def /dtri 6 array def
/smat 6 array def /dmat 6 array def
/tmat1 6 array def /tmat2 6 array def /dif 3 array def
/asub {/ind2 exch def /ind1 exch def dup dup
  ind1 get exch ind2 get sub exch } bdef
/tri_to_matrix {
  2 0 asub 3 1 asub 4 0 asub 5 1 asub
  dup 0 get exch 1 get 7 -1 roll astore } bdef
/compute_transform {
  dmat dtri tri_to_matrix tmat1 invertmatrix 
  smat stri tri_to_matrix tmat2 concatmatrix } bdef
/ds {stri astore pop} bdef
/dt {dtri astore pop} bdef
/db {2 copy /cols xdef /rows xdef mul dup 3 mul string
  currentfile 
  3 index 0 eq {/ASCIIHexDecode filter}
  {/ASCII85Decode filter 3 index 2 eq {/RunLengthDecode filter} if }
  ifelse exch readstring pop
  dup 0 3 index getinterval /rbmap xdef
  dup 2 index dup getinterval /gbmap xdef
  1 index dup 2 mul exch getinterval /bbmap xdef pop pop}bdef
/it {gs np dtri aload pop moveto lineto lineto cp c
  cols rows 8 compute_transform 
  rbmap gbmap bbmap true 3 colorimage gr}bdef
/il {newpath moveto lineto stroke}bdef
currentdict end def
%%EndProlog

%%BeginSetup
MathWorks begin

0 cap

end
%%EndSetup

%%Page: 1 1
%%BeginPageSetup
%%PageBoundingBox:    11   110   574   681
MathWorks begin
bpage
%%EndPageSetup

%%BeginObject: obj1
bplot

/dpi2point 12 def
portraitMode -0216 8688 csm

  351   508  6758  6854 rc
82 dict begin %Colortable dictionary
/c0 { 0.000000 0.000000 0.000000 sr} bdef
/c1 { 1.000000 1.000000 1.000000 sr} bdef
/c2 { 0.900000 0.000000 0.000000 sr} bdef
/c3 { 0.000000 0.820000 0.000000 sr} bdef
/c4 { 0.000000 0.000000 0.800000 sr} bdef
/c5 { 0.910000 0.820000 0.320000 sr} bdef
/c6 { 1.000000 0.260000 0.820000 sr} bdef
/c7 { 0.000000 0.820000 0.820000 sr} bdef
c0
1 j
1 sg
   0    0 7788 7897 rf
6 w
0 1148 6035 0 0 -1148 1012 1740 4 MP
PP
-6035 0 0 1148 6035 0 0 -1148 1012 1740 5 MP stroke
4 w
DO
0 sg
1012 1740 mt 1012  592 L
1012  592 mt 1012  592 L
1603 1740 mt 1603  592 L
1603  592 mt 1603  592 L
2195 1740 mt 2195  592 L
2195  592 mt 2195  592 L
2787 1740 mt 2787  592 L
2787  592 mt 2787  592 L
3378 1740 mt 3378  592 L
3378  592 mt 3378  592 L
3970 1740 mt 3970  592 L
3970  592 mt 3970  592 L
4562 1740 mt 4562  592 L
4562  592 mt 4562  592 L
5153 1740 mt 5153  592 L
5153  592 mt 5153  592 L
5745 1740 mt 5745  592 L
5745  592 mt 5745  592 L
6337 1740 mt 6337  592 L
6337  592 mt 6337  592 L
6928 1740 mt 6928  592 L
6928  592 mt 6928  592 L
1012 1740 mt 7047 1740 L
7047 1740 mt 7047 1740 L
1012 1504 mt 7047 1504 L
7047 1504 mt 7047 1504 L
1012 1269 mt 7047 1269 L
7047 1269 mt 7047 1269 L
1012 1034 mt 7047 1034 L
7047 1034 mt 7047 1034 L
1012  799 mt 7047  799 L
7047  799 mt 7047  799 L
SO
6 w
1012 1740 mt 7047 1740 L
1012 1740 mt 1012  592 L
1012 1740 mt 1012 1679 L
%%IncludeResource: font Helvetica
/Helvetica /ISOLatin1Encoding 120 FMSR

 979 1885 mt 
(0) s
1603 1740 mt 1603 1679 L
1537 1885 mt 
(10) s
2195 1740 mt 2195 1679 L
2129 1885 mt 
(20) s
2787 1740 mt 2787 1679 L
2721 1885 mt 
(30) s
3378 1740 mt 3378 1679 L
3312 1885 mt 
(40) s
3970 1740 mt 3970 1679 L
3904 1885 mt 
(50) s
4562 1740 mt 4562 1679 L
4496 1885 mt 
(60) s
5153 1740 mt 5153 1679 L
5087 1885 mt 
(70) s
5745 1740 mt 5745 1679 L
5679 1885 mt 
(80) s
6337 1740 mt 6337 1679 L
6271 1885 mt 
(90) s
6928 1740 mt 6928 1679 L
6828 1885 mt 
(100) s
1012 1740 mt 1072 1740 L
 911 1784 mt 
(0) s
1012 1504 mt 1072 1504 L
 844 1548 mt 
(50) s
1012 1269 mt 1072 1269 L
 777 1313 mt 
(100) s
1012 1034 mt 1072 1034 L
 777 1078 mt 
(150) s
1012  799 mt 1072  799 L
 777  843 mt 
(200) s
gs 1012 592 6036 1149 rc
/c8 { 1.000000 0.000000 0.000000 sr} bdef
c8
59 0 59 0 59 0 59 0 59 0 60 0 59 0 59 0 
59 0 59 0 59 0 60 0 59 0 59 0 59 0 59 0 
59 0 60 0 59 0 59 0 59 0 59 0 59 0 60 0 
59 0 59 0 59 0 59 0 59 419 60 -166 59 -101 59 -62 
59 -37 59 -22 59 -14 60 -8 59 -5 59 -4 59 0 59 0 
59 0 60 0 59 0 59 0 59 0 59 0 59 0 60 152 
59 -62 59 -37 59 -22 59 -14 59 -8 60 -5 59 -4 59 0 
59 0 59 0 59 0 60 253 59 -101 59 -62 59 -37 59 -22 
59 -14 60 -8 59 -5 59 -4 59 0 59 0 59 419 60 -166 
59 -101 59 -62 59 -37 59 -22 59 -14 60 -8 59 -5 59 -4 
59 0 59 0 59 0 60 0 59 0 59 0 59 0 59 0 
59 0 60 1147 59 -453 59 -275 59 -166 59 -101 59 -62 60 -37 
59 -22 59 -14 59 -8 59 -5 59 -4 1012 1740 102 MP stroke
gr

c8
gs 939 520 6122 1294 rc
0 j
-21 -16 8 -25 -22 15 -21 -15 8 25 -21 16 26 0 8 24 
9 -24 26 0 977 1728 11 MP
DP
-21 -16 8 -25 -22 15 -21 -15 8 25 -21 16 26 0 8 24 
9 -24 26 0 1036 1724 11 MP
DP
-21 -16 8 -25 -22 15 -21 -15 8 25 -21 16 26 0 8 24 
9 -24 26 0 1095 1719 11 MP
DP
-21 -16 8 -25 -22 15 -21 -15 8 25 -21 16 26 0 8 24 
9 -24 26 0 1154 1711 11 MP
DP
-21 -16 8 -25 -22 15 -21 -15 8 25 -21 16 26 0 8 24 
9 -24 26 0 1213 1697 11 MP
DP
-21 -16 8 -25 -22 15 -21 -15 8 25 -21 16 26 0 8 24 
9 -24 26 0 1272 1675 11 MP
DP
-21 -16 8 -25 -22 15 -21 -15 8 25 -21 16 26 0 8 24 
9 -24 26 0 1332 1638 11 MP
DP
-21 -16 8 -25 -22 15 -21 -15 8 25 -21 16 26 0 8 24 
9 -24 26 0 1391 1576 11 MP
DP
-21 -16 8 -25 -22 15 -21 -15 8 25 -21 16 26 0 8 24 
9 -24 26 0 1450 1475 11 MP
DP
-21 -16 8 -25 -22 15 -21 -15 8 25 -21 16 26 0 8 24 
9 -24 26 0 1509 1309 11 MP
DP
-21 -16 8 -25 -22 15 -21 -15 8 25 -21 16 26 0 8 24 
9 -24 26 0 1568 1034 11 MP
DP
-21 -16 8 -25 -22 15 -21 -15 8 25 -21 16 26 0 8 24 
9 -24 26 0 1627 581 11 MP
DP
-21 -16 8 -25 -22 15 -21 -15 8 25 -21 16 26 0 8 24 
9 -24 26 0 1687 1728 11 MP
DP
-21 -16 8 -25 -22 15 -21 -15 8 25 -21 16 26 0 8 24 
9 -24 26 0 1746 1728 11 MP
DP
-21 -16 8 -25 -22 15 -21 -15 8 25 -21 16 26 0 8 24 
9 -24 26 0 1805 1728 11 MP
DP
-21 -16 8 -25 -22 15 -21 -15 8 25 -21 16 26 0 8 24 
9 -24 26 0 1864 1728 11 MP
DP
-21 -16 8 -25 -22 15 -21 -15 8 25 -21 16 26 0 8 24 
9 -24 26 0 1923 1728 11 MP
DP
-21 -16 8 -25 -22 15 -21 -15 8 25 -21 16 26 0 8 24 
9 -24 26 0 1982 1728 11 MP
DP
-21 -16 8 -25 -22 15 -21 -15 8 25 -21 16 26 0 8 24 
9 -24 26 0 2042 1728 11 MP
DP
-21 -16 8 -25 -22 15 -21 -15 8 25 -21 16 26 0 8 24 
9 -24 26 0 2101 1728 11 MP
DP
-21 -16 8 -25 -22 15 -21 -15 8 25 -21 16 26 0 8 24 
9 -24 26 0 2160 1728 11 MP
DP
-21 -16 8 -25 -22 15 -21 -15 8 25 -21 16 26 0 8 24 
9 -24 26 0 2219 1728 11 MP
DP
-21 -16 8 -25 -22 15 -21 -15 8 25 -21 16 26 0 8 24 
9 -24 26 0 2278 1724 11 MP
DP
-21 -16 8 -25 -22 15 -21 -15 8 25 -21 16 26 0 8 24 
9 -24 26 0 2337 1719 11 MP
DP
-21 -16 8 -25 -22 15 -21 -15 8 25 -21 16 26 0 8 24 
9 -24 26 0 2397 1711 11 MP
DP
-21 -16 8 -25 -22 15 -21 -15 8 25 -21 16 26 0 8 24 
9 -24 26 0 2456 1697 11 MP
DP
-21 -16 8 -25 -22 15 -21 -15 8 25 -21 16 26 0 8 24 
9 -24 26 0 2515 1675 11 MP
DP
-21 -16 8 -25 -22 15 -21 -15 8 25 -21 16 26 0 8 24 
9 -24 26 0 2574 1638 11 MP
DP
-21 -16 8 -25 -22 15 -21 -15 8 25 -21 16 26 0 8 24 
9 -24 26 0 2633 1576 11 MP
DP
-21 -16 8 -25 -22 15 -21 -15 8 25 -21 16 26 0 8 24 
9 -24 26 0 2692 1475 11 MP
DP
-21 -16 8 -25 -22 15 -21 -15 8 25 -21 16 26 0 8 24 
9 -24 26 0 2752 1309 11 MP
DP
-21 -16 8 -25 -22 15 -21 -15 8 25 -21 16 26 0 8 24 
9 -24 26 0 2811 1728 11 MP
DP
-21 -16 8 -25 -22 15 -21 -15 8 25 -21 16 26 0 8 24 
9 -24 26 0 2870 1728 11 MP
DP
-21 -16 8 -25 -22 15 -21 -15 8 25 -21 16 26 0 8 24 
9 -24 26 0 2929 1728 11 MP
DP
-21 -16 8 -25 -22 15 -21 -15 8 25 -21 16 26 0 8 24 
9 -24 26 0 2988 1724 11 MP
DP
-21 -16 8 -25 -22 15 -21 -15 8 25 -21 16 26 0 8 24 
9 -24 26 0 3047 1719 11 MP
DP
-21 -16 8 -25 -22 15 -21 -15 8 25 -21 16 26 0 8 24 
9 -24 26 0 3107 1711 11 MP
DP
-21 -16 8 -25 -22 15 -21 -15 8 25 -21 16 26 0 8 24 
9 -24 26 0 3166 1697 11 MP
DP
-21 -16 8 -25 -22 15 -21 -15 8 25 -21 16 26 0 8 24 
9 -24 26 0 3225 1675 11 MP
DP
-21 -16 8 -25 -22 15 -21 -15 8 25 -21 16 26 0 8 24 
9 -24 26 0 3284 1638 11 MP
DP
-21 -16 8 -25 -22 15 -21 -15 8 25 -21 16 26 0 8 24 
9 -24 26 0 3343 1576 11 MP
DP
-21 -16 8 -25 -22 15 -21 -15 8 25 -21 16 26 0 8 24 
9 -24 26 0 3402 1475 11 MP
DP
-21 -16 8 -25 -22 15 -21 -15 8 25 -21 16 26 0 8 24 
9 -24 26 0 3462 1728 11 MP
DP
-21 -16 8 -25 -22 15 -21 -15 8 25 -21 16 26 0 8 24 
9 -24 26 0 3521 1728 11 MP
DP
-21 -16 8 -25 -22 15 -21 -15 8 25 -21 16 26 0 8 24 
9 -24 26 0 3580 1728 11 MP
DP
-21 -16 8 -25 -22 15 -21 -15 8 25 -21 16 26 0 8 24 
9 -24 26 0 3639 1728 11 MP
DP
-21 -16 8 -25 -22 15 -21 -15 8 25 -21 16 26 0 8 24 
9 -24 26 0 3698 1728 11 MP
DP
-21 -16 8 -25 -22 15 -21 -15 8 25 -21 16 26 0 8 24 
9 -24 26 0 3757 1724 11 MP
DP
-21 -16 8 -25 -22 15 -21 -15 8 25 -21 16 26 0 8 24 
9 -24 26 0 3817 1719 11 MP
DP
-21 -16 8 -25 -22 15 -21 -15 8 25 -21 16 26 0 8 24 
9 -24 26 0 3876 1711 11 MP
DP
-21 -16 8 -25 -22 15 -21 -15 8 25 -21 16 26 0 8 24 
9 -24 26 0 3935 1697 11 MP
DP
-21 -16 8 -25 -22 15 -21 -15 8 25 -21 16 26 0 8 24 
9 -24 26 0 3994 1675 11 MP
DP
-21 -16 8 -25 -22 15 -21 -15 8 25 -21 16 26 0 8 24 
9 -24 26 0 4053 1638 11 MP
DP
-21 -16 8 -25 -22 15 -21 -15 8 25 -21 16 26 0 8 24 
9 -24 26 0 4112 1576 11 MP
DP
-21 -16 8 -25 -22 15 -21 -15 8 25 -21 16 26 0 8 24 
9 -24 26 0 4172 1728 11 MP
DP
-21 -16 8 -25 -22 15 -21 -15 8 25 -21 16 26 0 8 24 
9 -24 26 0 4231 1728 11 MP
DP
-21 -16 8 -25 -22 15 -21 -15 8 25 -21 16 26 0 8 24 
9 -24 26 0 4290 1728 11 MP
DP
-21 -16 8 -25 -22 15 -21 -15 8 25 -21 16 26 0 8 24 
9 -24 26 0 4349 1728 11 MP
DP
-21 -16 8 -25 -22 15 -21 -15 8 25 -21 16 26 0 8 24 
9 -24 26 0 4408 1728 11 MP
DP
-21 -16 8 -25 -22 15 -21 -15 8 25 -21 16 26 0 8 24 
9 -24 26 0 4467 1728 11 MP
DP
-21 -16 8 -25 -22 15 -21 -15 8 25 -21 16 26 0 8 24 
9 -24 26 0 4527 1728 11 MP
DP
-21 -16 8 -25 -22 15 -21 -15 8 25 -21 16 26 0 8 24 
9 -24 26 0 4586 1728 11 MP
DP
-21 -16 8 -25 -22 15 -21 -15 8 25 -21 16 26 0 8 24 
9 -24 26 0 4645 1728 11 MP
DP
-21 -16 8 -25 -22 15 -21 -15 8 25 -21 16 26 0 8 24 
9 -24 26 0 4704 1728 11 MP
DP
-21 -16 8 -25 -22 15 -21 -15 8 25 -21 16 26 0 8 24 
9 -24 26 0 4763 1724 11 MP
DP
-21 -16 8 -25 -22 15 -21 -15 8 25 -21 16 26 0 8 24 
9 -24 26 0 4822 1719 11 MP
DP
-21 -16 8 -25 -22 15 -21 -15 8 25 -21 16 26 0 8 24 
9 -24 26 0 4882 1711 11 MP
DP
-21 -16 8 -25 -22 15 -21 -15 8 25 -21 16 26 0 8 24 
9 -24 26 0 4941 1697 11 MP
DP
-21 -16 8 -25 -22 15 -21 -15 8 25 -21 16 26 0 8 24 
9 -24 26 0 5000 1675 11 MP
DP
-21 -16 8 -25 -22 15 -21 -15 8 25 -21 16 26 0 8 24 
9 -24 26 0 5059 1638 11 MP
DP
-21 -16 8 -25 -22 15 -21 -15 8 25 -21 16 26 0 8 24 
9 -24 26 0 5118 1576 11 MP
DP
-21 -16 8 -25 -22 15 -21 -15 8 25 -21 16 26 0 8 24 
9 -24 26 0 5177 1475 11 MP
DP
-21 -16 8 -25 -22 15 -21 -15 8 25 -21 16 26 0 8 24 
9 -24 26 0 5237 1309 11 MP
DP
-21 -16 8 -25 -22 15 -21 -15 8 25 -21 16 26 0 8 24 
9 -24 26 0 5296 1728 11 MP
DP
-21 -16 8 -25 -22 15 -21 -15 8 25 -21 16 26 0 8 24 
9 -24 26 0 5355 1728 11 MP
DP
-21 -16 8 -25 -22 15 -21 -15 8 25 -21 16 26 0 8 24 
9 -24 26 0 5414 1728 11 MP
DP
-21 -16 8 -25 -22 15 -21 -15 8 25 -21 16 26 0 8 24 
9 -24 26 0 5473 1728 11 MP
DP
-21 -16 8 -25 -22 15 -21 -15 8 25 -21 16 26 0 8 24 
9 -24 26 0 5532 1728 11 MP
DP
-21 -16 8 -25 -22 15 -21 -15 8 25 -21 16 26 0 8 24 
9 -24 26 0 5592 1728 11 MP
DP
-21 -16 8 -25 -22 15 -21 -15 8 25 -21 16 26 0 8 24 
9 -24 26 0 5651 1728 11 MP
DP
-21 -16 8 -25 -22 15 -21 -15 8 25 -21 16 26 0 8 24 
9 -24 26 0 5710 1728 11 MP
DP
-21 -16 8 -25 -22 15 -21 -15 8 25 -21 16 26 0 8 24 
9 -24 26 0 5769 1728 11 MP
DP
-21 -16 8 -25 -22 15 -21 -15 8 25 -21 16 26 0 8 24 
9 -24 26 0 5828 1728 11 MP
DP
-21 -16 8 -25 -22 15 -21 -15 8 25 -21 16 26 0 8 24 
9 -24 26 0 5887 1728 11 MP
DP
-21 -16 8 -25 -22 15 -21 -15 8 25 -21 16 26 0 8 24 
9 -24 26 0 5947 1728 11 MP
DP
-21 -16 8 -25 -22 15 -21 -15 8 25 -21 16 26 0 8 24 
9 -24 26 0 6006 1728 11 MP
DP
-21 -16 8 -25 -22 15 -21 -15 8 25 -21 16 26 0 8 24 
9 -24 26 0 6065 1728 11 MP
DP
-21 -16 8 -25 -22 15 -21 -15 8 25 -21 16 26 0 8 24 
9 -24 26 0 6124 1728 11 MP
DP
-21 -16 8 -25 -22 15 -21 -15 8 25 -21 16 26 0 8 24 
9 -24 26 0 6183 1728 11 MP
DP
-21 -16 8 -25 -22 15 -21 -15 8 25 -21 16 26 0 8 24 
9 -24 26 0 6242 1728 11 MP
DP
-21 -16 8 -25 -22 15 -21 -15 8 25 -21 16 26 0 8 24 
9 -24 26 0 6302 1728 11 MP
DP
-21 -16 8 -25 -22 15 -21 -15 8 25 -21 16 26 0 8 24 
9 -24 26 0 6361 1728 11 MP
DP
-21 -16 8 -25 -22 15 -21 -15 8 25 -21 16 26 0 8 24 
9 -24 26 0 6420 1728 11 MP
DP
-21 -16 8 -25 -22 15 -21 -15 8 25 -21 16 26 0 8 24 
9 -24 26 0 6479 1728 11 MP
DP
-21 -16 8 -25 -22 15 -21 -15 8 25 -21 16 26 0 8 24 
9 -24 26 0 6538 1728 11 MP
DP
-21 -16 8 -25 -22 15 -21 -15 8 25 -21 16 26 0 8 24 
9 -24 26 0 6597 1728 11 MP
DP
-21 -16 8 -25 -22 15 -21 -15 8 25 -21 16 26 0 8 24 
9 -24 26 0 6657 1728 11 MP
DP
-21 -16 8 -25 -22 15 -21 -15 8 25 -21 16 26 0 8 24 
9 -24 26 0 6716 1728 11 MP
DP
-21 -16 8 -25 -22 15 -21 -15 8 25 -21 16 26 0 8 24 
9 -24 26 0 6775 1728 11 MP
DP
-21 -16 8 -25 -22 15 -21 -15 8 25 -21 16 26 0 8 24 
9 -24 26 0 6834 1728 11 MP
DP
-21 -16 8 -25 -22 15 -21 -15 8 25 -21 16 26 0 8 24 
9 -24 26 0 6893 1728 11 MP
DP
-21 -16 8 -25 -22 15 -21 -15 8 25 -21 16 26 0 8 24 
9 -24 26 0 6952 1728 11 MP
DP
gs 1012 592 6036 1149 rc
gr
gr

0 sg
%%IncludeResource: font Helvetica
/Helvetica /ISOLatin1Encoding 216 FMSR

3842 2099 mt 
(t \(s\)) s
 577 1375 mt  -90 rotate
(u) s
90 rotate
%%IncludeResource: font Helvetica
/Helvetica /ISOLatin1Encoding 168 FMSR

 685 1255 mt  -90 rotate
(1) s
90 rotate
%%IncludeResource: font Helvetica
/Helvetica /ISOLatin1Encoding 216 FMSR

 577 1162 mt  -90 rotate
(\(t\)) s
90 rotate
1 sg
0 1148 6035 0 0 -1148 1012 3470 4 MP
PP
-6035 0 0 1148 6035 0 0 -1148 1012 3470 5 MP stroke
4 w
DO
0 sg
1012 3470 mt 1012 2322 L
1012 2322 mt 1012 2322 L
1603 3470 mt 1603 2322 L
1603 2322 mt 1603 2322 L
2195 3470 mt 2195 2322 L
2195 2322 mt 2195 2322 L
2787 3470 mt 2787 2322 L
2787 2322 mt 2787 2322 L
3378 3470 mt 3378 2322 L
3378 2322 mt 3378 2322 L
3970 3470 mt 3970 2322 L
3970 2322 mt 3970 2322 L
4562 3470 mt 4562 2322 L
4562 2322 mt 4562 2322 L
5153 3470 mt 5153 2322 L
5153 2322 mt 5153 2322 L
5745 3470 mt 5745 2322 L
5745 2322 mt 5745 2322 L
6337 3470 mt 6337 2322 L
6337 2322 mt 6337 2322 L
6928 3470 mt 6928 2322 L
6928 2322 mt 6928 2322 L
1012 3470 mt 7047 3470 L
7047 3470 mt 7047 3470 L
1012 3183 mt 7047 3183 L
7047 3183 mt 7047 3183 L
1012 2896 mt 7047 2896 L
7047 2896 mt 7047 2896 L
1012 2609 mt 7047 2609 L
7047 2609 mt 7047 2609 L
1012 2322 mt 7047 2322 L
7047 2322 mt 7047 2322 L
SO
6 w
1012 3470 mt 7047 3470 L
1012 3470 mt 1012 2322 L
1012 3470 mt 1012 3409 L
%%IncludeResource: font Helvetica
/Helvetica /ISOLatin1Encoding 120 FMSR

 979 3615 mt 
(0) s
1603 3470 mt 1603 3409 L
1537 3615 mt 
(10) s
2195 3470 mt 2195 3409 L
2129 3615 mt 
(20) s
2787 3470 mt 2787 3409 L
2721 3615 mt 
(30) s
3378 3470 mt 3378 3409 L
3312 3615 mt 
(40) s
3970 3470 mt 3970 3409 L
3904 3615 mt 
(50) s
4562 3470 mt 4562 3409 L
4496 3615 mt 
(60) s
5153 3470 mt 5153 3409 L
5087 3615 mt 
(70) s
5745 3470 mt 5745 3409 L
5679 3615 mt 
(80) s
6337 3470 mt 6337 3409 L
6271 3615 mt 
(90) s
6928 3470 mt 6928 3409 L
6828 3615 mt 
(100) s
1012 3470 mt 1072 3470 L
 911 3514 mt 
(0) s
1012 3183 mt 1072 3183 L
 811 3227 mt 
(0.5) s
1012 2896 mt 1072 2896 L
 911 2940 mt 
(1) s
1012 2609 mt 1072 2609 L
 811 2653 mt 
(1.5) s
1012 2322 mt 1072 2322 L
 911 2366 mt 
(2) s
gs 1012 2322 6036 1149 rc
/c9 { 1.000000 0.000000 1.000000 sr} bdef
c9
59 0 59 0 59 0 59 0 59 0 60 0 59 0 59 0 
59 0 59 0 59 0 60 0 59 0 59 0 59 0 59 0 
59 0 60 0 59 0 59 0 59 0 59 0 59 0 60 0 
59 0 59 0 59 0 59 0 59 0 60 0 59 0 59 0 
59 0 59 0 59 0 60 0 59 0 59 0 59 -283 59 0 
59 0 60 0 59 0 59 0 59 0 59 0 59 0 60 0 
59 0 59 0 59 0 59 0 59 0 60 0 59 0 59 -232 
59 0 59 0 59 0 60 0 59 0 59 0 59 0 59 0 
59 0 60 0 59 0 59 0 59 -189 59 0 59 0 60 0 
59 0 59 0 59 0 59 0 59 0 60 0 59 0 59 0 
59 -155 59 0 59 0 60 0 59 0 59 0 59 0 59 0 
59 0 60 0 59 0 59 0 59 0 59 0 59 0 60 0 
59 0 59 0 59 0 59 0 59 0 1012 3342 102 MP stroke
gr

c9
gs 939 2410 6122 1006 rc
 976 3342 mt 1048 3342 L
1012 3306 mt 1012 3378 L
1035 3342 mt 1107 3342 L
1071 3306 mt 1071 3378 L
1094 3342 mt 1166 3342 L
1130 3306 mt 1130 3378 L
1153 3342 mt 1225 3342 L
1189 3306 mt 1189 3378 L
1212 3342 mt 1284 3342 L
1248 3306 mt 1248 3378 L
1271 3342 mt 1343 3342 L
1307 3306 mt 1307 3378 L
1331 3342 mt 1403 3342 L
1367 3306 mt 1367 3378 L
1390 3342 mt 1462 3342 L
1426 3306 mt 1426 3378 L
1449 3342 mt 1521 3342 L
1485 3306 mt 1485 3378 L
1508 3342 mt 1580 3342 L
1544 3306 mt 1544 3378 L
1567 3342 mt 1639 3342 L
1603 3306 mt 1603 3378 L
1626 3342 mt 1698 3342 L
1662 3306 mt 1662 3378 L
1686 3342 mt 1758 3342 L
1722 3306 mt 1722 3378 L
1745 3342 mt 1817 3342 L
1781 3306 mt 1781 3378 L
1804 3342 mt 1876 3342 L
1840 3306 mt 1840 3378 L
1863 3342 mt 1935 3342 L
1899 3306 mt 1899 3378 L
1922 3342 mt 1994 3342 L
1958 3306 mt 1958 3378 L
1981 3342 mt 2053 3342 L
2017 3306 mt 2017 3378 L
2041 3342 mt 2113 3342 L
2077 3306 mt 2077 3378 L
2100 3342 mt 2172 3342 L
2136 3306 mt 2136 3378 L
2159 3342 mt 2231 3342 L
2195 3306 mt 2195 3378 L
2218 3187 mt 2290 3187 L
2254 3151 mt 2254 3223 L
2277 3187 mt 2349 3187 L
2313 3151 mt 2313 3223 L
2336 3187 mt 2408 3187 L
2372 3151 mt 2372 3223 L
2396 3187 mt 2468 3187 L
2432 3151 mt 2432 3223 L
2455 3187 mt 2527 3187 L
2491 3151 mt 2491 3223 L
2514 3187 mt 2586 3187 L
2550 3151 mt 2550 3223 L
2573 3187 mt 2645 3187 L
2609 3151 mt 2609 3223 L
2632 3187 mt 2704 3187 L
2668 3151 mt 2668 3223 L
2691 3187 mt 2763 3187 L
2727 3151 mt 2727 3223 L
2751 3187 mt 2823 3187 L
2787 3151 mt 2787 3223 L
2810 3187 mt 2882 3187 L
2846 3151 mt 2846 3223 L
2869 3187 mt 2941 3187 L
2905 3151 mt 2905 3223 L
2928 2998 mt 3000 2998 L
2964 2962 mt 2964 3034 L
2987 2998 mt 3059 2998 L
3023 2962 mt 3023 3034 L
3046 2998 mt 3118 2998 L
3082 2962 mt 3082 3034 L
3106 2998 mt 3178 2998 L
3142 2962 mt 3142 3034 L
3165 2998 mt 3237 2998 L
3201 2962 mt 3201 3034 L
3224 2998 mt 3296 2998 L
3260 2962 mt 3260 3034 L
3283 2998 mt 3355 2998 L
3319 2962 mt 3319 3034 L
3342 2998 mt 3414 2998 L
3378 2962 mt 3378 3034 L
3401 2998 mt 3473 2998 L
3437 2962 mt 3437 3034 L
3461 2998 mt 3533 2998 L
3497 2962 mt 3497 3034 L
3520 2998 mt 3592 2998 L
3556 2962 mt 3556 3034 L
3579 2998 mt 3651 2998 L
3615 2962 mt 3615 3034 L
3638 2998 mt 3710 2998 L
3674 2962 mt 3674 3034 L
3697 2766 mt 3769 2766 L
3733 2730 mt 3733 2802 L
3756 2766 mt 3828 2766 L
3792 2730 mt 3792 2802 L
3816 2766 mt 3888 2766 L
3852 2730 mt 3852 2802 L
3875 2766 mt 3947 2766 L
3911 2730 mt 3911 2802 L
3934 2766 mt 4006 2766 L
3970 2730 mt 3970 2802 L
3993 2766 mt 4065 2766 L
4029 2730 mt 4029 2802 L
4052 2766 mt 4124 2766 L
4088 2730 mt 4088 2802 L
4111 2766 mt 4183 2766 L
4147 2730 mt 4147 2802 L
4171 2766 mt 4243 2766 L
4207 2730 mt 4207 2802 L
4230 2766 mt 4302 2766 L
4266 2730 mt 4266 2802 L
4289 2766 mt 4361 2766 L
4325 2730 mt 4325 2802 L
4348 2766 mt 4420 2766 L
4384 2730 mt 4384 2802 L
4407 2766 mt 4479 2766 L
4443 2730 mt 4443 2802 L
4466 2766 mt 4538 2766 L
4502 2730 mt 4502 2802 L
4526 2766 mt 4598 2766 L
4562 2730 mt 4562 2802 L
4585 2766 mt 4657 2766 L
4621 2730 mt 4621 2802 L
4644 2766 mt 4716 2766 L
4680 2730 mt 4680 2802 L
4703 2483 mt 4775 2483 L
4739 2447 mt 4739 2519 L
4762 2483 mt 4834 2483 L
4798 2447 mt 4798 2519 L
4821 2483 mt 4893 2483 L
4857 2447 mt 4857 2519 L
4881 2483 mt 4953 2483 L
4917 2447 mt 4917 2519 L
4940 2483 mt 5012 2483 L
4976 2447 mt 4976 2519 L
4999 2483 mt 5071 2483 L
5035 2447 mt 5035 2519 L
5058 2483 mt 5130 2483 L
5094 2447 mt 5094 2519 L
5117 2483 mt 5189 2483 L
5153 2447 mt 5153 2519 L
5176 2483 mt 5248 2483 L
5212 2447 mt 5212 2519 L
5236 2483 mt 5308 2483 L
5272 2447 mt 5272 2519 L
5295 2483 mt 5367 2483 L
5331 2447 mt 5331 2519 L
5354 2483 mt 5426 2483 L
5390 2447 mt 5390 2519 L
5413 2483 mt 5485 2483 L
5449 2447 mt 5449 2519 L
5472 2483 mt 5544 2483 L
5508 2447 mt 5508 2519 L
5531 2483 mt 5603 2483 L
5567 2447 mt 5567 2519 L
5591 2483 mt 5663 2483 L
5627 2447 mt 5627 2519 L
5650 2483 mt 5722 2483 L
5686 2447 mt 5686 2519 L
5709 2483 mt 5781 2483 L
5745 2447 mt 5745 2519 L
5768 2483 mt 5840 2483 L
5804 2447 mt 5804 2519 L
5827 2483 mt 5899 2483 L
5863 2447 mt 5863 2519 L
5886 2483 mt 5958 2483 L
5922 2447 mt 5922 2519 L
5946 2483 mt 6018 2483 L
5982 2447 mt 5982 2519 L
6005 2483 mt 6077 2483 L
6041 2447 mt 6041 2519 L
6064 2483 mt 6136 2483 L
6100 2447 mt 6100 2519 L
6123 2483 mt 6195 2483 L
6159 2447 mt 6159 2519 L
6182 2483 mt 6254 2483 L
6218 2447 mt 6218 2519 L
6241 2483 mt 6313 2483 L
6277 2447 mt 6277 2519 L
6301 2483 mt 6373 2483 L
6337 2447 mt 6337 2519 L
6360 2483 mt 6432 2483 L
6396 2447 mt 6396 2519 L
6419 2483 mt 6491 2483 L
6455 2447 mt 6455 2519 L
6478 2483 mt 6550 2483 L
6514 2447 mt 6514 2519 L
6537 2483 mt 6609 2483 L
6573 2447 mt 6573 2519 L
6596 2483 mt 6668 2483 L
6632 2447 mt 6632 2519 L
6656 2483 mt 6728 2483 L
6692 2447 mt 6692 2519 L
6715 2483 mt 6787 2483 L
6751 2447 mt 6751 2519 L
6774 2483 mt 6846 2483 L
6810 2447 mt 6810 2519 L
6833 2483 mt 6905 2483 L
6869 2447 mt 6869 2519 L
6892 2483 mt 6964 2483 L
6928 2447 mt 6928 2519 L
6951 2483 mt 7023 2483 L
6987 2447 mt 6987 2519 L
 987 3317 mt 1037 3367 L
1037 3317 mt  987 3367 L
1046 3317 mt 1096 3367 L
1096 3317 mt 1046 3367 L
1105 3317 mt 1155 3367 L
1155 3317 mt 1105 3367 L
1164 3317 mt 1214 3367 L
1214 3317 mt 1164 3367 L
1223 3317 mt 1273 3367 L
1273 3317 mt 1223 3367 L
1282 3317 mt 1332 3367 L
1332 3317 mt 1282 3367 L
1342 3317 mt 1392 3367 L
1392 3317 mt 1342 3367 L
1401 3317 mt 1451 3367 L
1451 3317 mt 1401 3367 L
1460 3317 mt 1510 3367 L
1510 3317 mt 1460 3367 L
1519 3317 mt 1569 3367 L
1569 3317 mt 1519 3367 L
1578 3317 mt 1628 3367 L
1628 3317 mt 1578 3367 L
1637 3317 mt 1687 3367 L
1687 3317 mt 1637 3367 L
1697 3317 mt 1747 3367 L
1747 3317 mt 1697 3367 L
1756 3317 mt 1806 3367 L
1806 3317 mt 1756 3367 L
1815 3317 mt 1865 3367 L
1865 3317 mt 1815 3367 L
1874 3317 mt 1924 3367 L
1924 3317 mt 1874 3367 L
1933 3317 mt 1983 3367 L
1983 3317 mt 1933 3367 L
1992 3317 mt 2042 3367 L
2042 3317 mt 1992 3367 L
2052 3317 mt 2102 3367 L
2102 3317 mt 2052 3367 L
2111 3317 mt 2161 3367 L
2161 3317 mt 2111 3367 L
2170 3317 mt 2220 3367 L
2220 3317 mt 2170 3367 L
2229 3162 mt 2279 3212 L
2279 3162 mt 2229 3212 L
2288 3162 mt 2338 3212 L
2338 3162 mt 2288 3212 L
2347 3162 mt 2397 3212 L
2397 3162 mt 2347 3212 L
2407 3162 mt 2457 3212 L
2457 3162 mt 2407 3212 L
2466 3162 mt 2516 3212 L
2516 3162 mt 2466 3212 L
2525 3162 mt 2575 3212 L
2575 3162 mt 2525 3212 L
2584 3162 mt 2634 3212 L
2634 3162 mt 2584 3212 L
2643 3162 mt 2693 3212 L
2693 3162 mt 2643 3212 L
2702 3162 mt 2752 3212 L
2752 3162 mt 2702 3212 L
2762 3162 mt 2812 3212 L
2812 3162 mt 2762 3212 L
2821 3162 mt 2871 3212 L
2871 3162 mt 2821 3212 L
2880 3162 mt 2930 3212 L
2930 3162 mt 2880 3212 L
2939 2973 mt 2989 3023 L
2989 2973 mt 2939 3023 L
2998 2973 mt 3048 3023 L
3048 2973 mt 2998 3023 L
3057 2973 mt 3107 3023 L
3107 2973 mt 3057 3023 L
3117 2973 mt 3167 3023 L
3167 2973 mt 3117 3023 L
3176 2973 mt 3226 3023 L
3226 2973 mt 3176 3023 L
3235 2973 mt 3285 3023 L
3285 2973 mt 3235 3023 L
3294 2973 mt 3344 3023 L
3344 2973 mt 3294 3023 L
3353 2973 mt 3403 3023 L
3403 2973 mt 3353 3023 L
3412 2973 mt 3462 3023 L
3462 2973 mt 3412 3023 L
3472 2973 mt 3522 3023 L
3522 2973 mt 3472 3023 L
3531 2973 mt 3581 3023 L
3581 2973 mt 3531 3023 L
3590 2973 mt 3640 3023 L
3640 2973 mt 3590 3023 L
3649 2973 mt 3699 3023 L
3699 2973 mt 3649 3023 L
3708 2741 mt 3758 2791 L
3758 2741 mt 3708 2791 L
3767 2741 mt 3817 2791 L
3817 2741 mt 3767 2791 L
3827 2741 mt 3877 2791 L
3877 2741 mt 3827 2791 L
3886 2741 mt 3936 2791 L
3936 2741 mt 3886 2791 L
3945 2741 mt 3995 2791 L
3995 2741 mt 3945 2791 L
4004 2741 mt 4054 2791 L
4054 2741 mt 4004 2791 L
4063 2741 mt 4113 2791 L
4113 2741 mt 4063 2791 L
4122 2741 mt 4172 2791 L
4172 2741 mt 4122 2791 L
4182 2741 mt 4232 2791 L
4232 2741 mt 4182 2791 L
4241 2741 mt 4291 2791 L
4291 2741 mt 4241 2791 L
4300 2741 mt 4350 2791 L
4350 2741 mt 4300 2791 L
4359 2741 mt 4409 2791 L
4409 2741 mt 4359 2791 L
4418 2741 mt 4468 2791 L
4468 2741 mt 4418 2791 L
4477 2741 mt 4527 2791 L
4527 2741 mt 4477 2791 L
4537 2741 mt 4587 2791 L
4587 2741 mt 4537 2791 L
4596 2741 mt 4646 2791 L
4646 2741 mt 4596 2791 L
4655 2741 mt 4705 2791 L
4705 2741 mt 4655 2791 L
4714 2458 mt 4764 2508 L
4764 2458 mt 4714 2508 L
4773 2458 mt 4823 2508 L
4823 2458 mt 4773 2508 L
4832 2458 mt 4882 2508 L
4882 2458 mt 4832 2508 L
4892 2458 mt 4942 2508 L
4942 2458 mt 4892 2508 L
4951 2458 mt 5001 2508 L
5001 2458 mt 4951 2508 L
5010 2458 mt 5060 2508 L
5060 2458 mt 5010 2508 L
5069 2458 mt 5119 2508 L
5119 2458 mt 5069 2508 L
5128 2458 mt 5178 2508 L
5178 2458 mt 5128 2508 L
5187 2458 mt 5237 2508 L
5237 2458 mt 5187 2508 L
5247 2458 mt 5297 2508 L
5297 2458 mt 5247 2508 L
5306 2458 mt 5356 2508 L
5356 2458 mt 5306 2508 L
5365 2458 mt 5415 2508 L
5415 2458 mt 5365 2508 L
5424 2458 mt 5474 2508 L
5474 2458 mt 5424 2508 L
5483 2458 mt 5533 2508 L
5533 2458 mt 5483 2508 L
5542 2458 mt 5592 2508 L
5592 2458 mt 5542 2508 L
5602 2458 mt 5652 2508 L
5652 2458 mt 5602 2508 L
5661 2458 mt 5711 2508 L
5711 2458 mt 5661 2508 L
5720 2458 mt 5770 2508 L
5770 2458 mt 5720 2508 L
5779 2458 mt 5829 2508 L
5829 2458 mt 5779 2508 L
5838 2458 mt 5888 2508 L
5888 2458 mt 5838 2508 L
5897 2458 mt 5947 2508 L
5947 2458 mt 5897 2508 L
5957 2458 mt 6007 2508 L
6007 2458 mt 5957 2508 L
6016 2458 mt 6066 2508 L
6066 2458 mt 6016 2508 L
6075 2458 mt 6125 2508 L
6125 2458 mt 6075 2508 L
6134 2458 mt 6184 2508 L
6184 2458 mt 6134 2508 L
6193 2458 mt 6243 2508 L
6243 2458 mt 6193 2508 L
6252 2458 mt 6302 2508 L
6302 2458 mt 6252 2508 L
6312 2458 mt 6362 2508 L
6362 2458 mt 6312 2508 L
6371 2458 mt 6421 2508 L
6421 2458 mt 6371 2508 L
6430 2458 mt 6480 2508 L
6480 2458 mt 6430 2508 L
6489 2458 mt 6539 2508 L
6539 2458 mt 6489 2508 L
6548 2458 mt 6598 2508 L
6598 2458 mt 6548 2508 L
6607 2458 mt 6657 2508 L
6657 2458 mt 6607 2508 L
6667 2458 mt 6717 2508 L
6717 2458 mt 6667 2508 L
6726 2458 mt 6776 2508 L
6776 2458 mt 6726 2508 L
6785 2458 mt 6835 2508 L
6835 2458 mt 6785 2508 L
6844 2458 mt 6894 2508 L
6894 2458 mt 6844 2508 L
6903 2458 mt 6953 2508 L
6953 2458 mt 6903 2508 L
6962 2458 mt 7012 2508 L
7012 2458 mt 6962 2508 L
gr

gs 1012 2322 6036 1149 rc
gr

0 sg
%%IncludeResource: font Helvetica
/Helvetica /ISOLatin1Encoding 216 FMSR

3842 3829 mt 
(t \(s\)) s
 611 3105 mt  -90 rotate
(u) s
90 rotate
%%IncludeResource: font Helvetica
/Helvetica /ISOLatin1Encoding 168 FMSR

 719 2985 mt  -90 rotate
(2) s
90 rotate
%%IncludeResource: font Helvetica
/Helvetica /ISOLatin1Encoding 216 FMSR

 611 2892 mt  -90 rotate
(\(t\)) s
90 rotate
1 sg
0 1148 6035 0 0 -1148 1012 5200 4 MP
PP
-6035 0 0 1148 6035 0 0 -1148 1012 5200 5 MP stroke
4 w
DO
0 sg
1012 5200 mt 1012 4052 L
1012 4052 mt 1012 4052 L
1603 5200 mt 1603 4052 L
1603 4052 mt 1603 4052 L
2195 5200 mt 2195 4052 L
2195 4052 mt 2195 4052 L
2787 5200 mt 2787 4052 L
2787 4052 mt 2787 4052 L
3378 5200 mt 3378 4052 L
3378 4052 mt 3378 4052 L
3970 5200 mt 3970 4052 L
3970 4052 mt 3970 4052 L
4562 5200 mt 4562 4052 L
4562 4052 mt 4562 4052 L
5153 5200 mt 5153 4052 L
5153 4052 mt 5153 4052 L
5745 5200 mt 5745 4052 L
5745 4052 mt 5745 4052 L
6337 5200 mt 6337 4052 L
6337 4052 mt 6337 4052 L
6928 5200 mt 6928 4052 L
6928 4052 mt 6928 4052 L
1012 5200 mt 7047 5200 L
7047 5200 mt 7047 5200 L
1012 4804 mt 7047 4804 L
7047 4804 mt 7047 4804 L
1012 4408 mt 7047 4408 L
7047 4408 mt 7047 4408 L
SO
6 w
1012 5200 mt 7047 5200 L
1012 5200 mt 1012 4052 L
1012 5200 mt 1012 5139 L
%%IncludeResource: font Helvetica
/Helvetica /ISOLatin1Encoding 120 FMSR

 979 5345 mt 
(0) s
1603 5200 mt 1603 5139 L
1537 5345 mt 
(10) s
2195 5200 mt 2195 5139 L
2129 5345 mt 
(20) s
2787 5200 mt 2787 5139 L
2721 5345 mt 
(30) s
3378 5200 mt 3378 5139 L
3312 5345 mt 
(40) s
3970 5200 mt 3970 5139 L
3904 5345 mt 
(50) s
4562 5200 mt 4562 5139 L
4496 5345 mt 
(60) s
5153 5200 mt 5153 5139 L
5087 5345 mt 
(70) s
5745 5200 mt 5745 5139 L
5679 5345 mt 
(80) s
6337 5200 mt 6337 5139 L
6271 5345 mt 
(90) s
6928 5200 mt 6928 5139 L
6828 5345 mt 
(100) s
1012 5200 mt 1072 5200 L
 911 5244 mt 
(0) s
1012 4804 mt 1072 4804 L
 844 4848 mt 
(10) s
1012 4408 mt 1072 4408 L
 844 4452 mt 
(20) s
gs 1012 4052 6036 1149 rc
/c10 { 0.000000 0.000000 1.000000 sr} bdef
c10
59 -39 59 -40 59 -39 59 -40 59 -39 60 -40 59 -40 59 -39 
59 -40 59 -39 59 -40 60 -40 59 -39 59 -40 59 -39 59 -40 
59 -39 60 -40 59 -40 59 -39 59 -40 59 -39 59 -40 60 -40 
59 -39 59 -40 59 -39 59 -40 59 -40 60 0 59 0 59 0 
59 0 59 0 59 0 60 0 59 0 59 0 59 357 59 -40 
59 -39 60 -40 59 -40 59 -39 59 -40 59 -39 59 -40 60 -40 
59 0 59 0 59 0 59 0 59 0 60 0 59 0 59 159 
59 -40 59 -39 59 -40 60 -40 59 0 59 0 59 0 59 0 
59 0 60 0 59 0 59 0 59 80 59 -40 59 -40 60 0 
59 0 59 0 59 0 59 0 59 0 60 0 59 0 59 0 
59 357 59 -40 59 -39 60 -40 59 -40 59 -39 59 -40 59 -39 
59 -40 60 -40 59 0 59 0 59 0 59 0 59 0 60 0 
59 0 59 0 59 0 59 0 59 0 1012 5200 102 MP stroke
gr

c10
gs 939 3979 6122 1295 rc
 976 5200 mt 1048 5200 L
1012 5164 mt 1012 5236 L
1035 5200 mt 1107 5200 L
1071 5164 mt 1071 5236 L
1094 5200 mt 1166 5200 L
1130 5164 mt 1130 5236 L
1153 5200 mt 1225 5200 L
1189 5164 mt 1189 5236 L
1212 5200 mt 1284 5200 L
1248 5164 mt 1248 5236 L
1271 5200 mt 1343 5200 L
1307 5164 mt 1307 5236 L
1331 5200 mt 1403 5200 L
1367 5164 mt 1367 5236 L
1390 5200 mt 1462 5200 L
1426 5164 mt 1426 5236 L
1449 5200 mt 1521 5200 L
1485 5164 mt 1485 5236 L
1508 5200 mt 1580 5200 L
1544 5164 mt 1544 5236 L
1567 5200 mt 1639 5200 L
1603 5164 mt 1603 5236 L
1626 5200 mt 1698 5200 L
1662 5164 mt 1662 5236 L
1686 5160 mt 1758 5160 L
1722 5124 mt 1722 5196 L
1745 5120 mt 1817 5120 L
1781 5084 mt 1781 5156 L
1804 5081 mt 1876 5081 L
1840 5045 mt 1840 5117 L
1863 5041 mt 1935 5041 L
1899 5005 mt 1899 5077 L
1922 5002 mt 1994 5002 L
1958 4966 mt 1958 5038 L
1981 4962 mt 2053 4962 L
2017 4926 mt 2017 4998 L
2041 4922 mt 2113 4922 L
2077 4886 mt 2077 4958 L
2100 4883 mt 2172 4883 L
2136 4847 mt 2136 4919 L
2159 4843 mt 2231 4843 L
2195 4807 mt 2195 4879 L
2218 5200 mt 2290 5200 L
2254 5164 mt 2254 5236 L
2277 5200 mt 2349 5200 L
2313 5164 mt 2313 5236 L
2336 5200 mt 2408 5200 L
2372 5164 mt 2372 5236 L
2396 5200 mt 2468 5200 L
2432 5164 mt 2432 5236 L
2455 5200 mt 2527 5200 L
2491 5164 mt 2491 5236 L
2514 5200 mt 2586 5200 L
2550 5164 mt 2550 5236 L
2573 5200 mt 2645 5200 L
2609 5164 mt 2609 5236 L
2632 5200 mt 2704 5200 L
2668 5164 mt 2668 5236 L
2691 5200 mt 2763 5200 L
2727 5164 mt 2727 5236 L
2751 5200 mt 2823 5200 L
2787 5164 mt 2787 5236 L
2810 5160 mt 2882 5160 L
2846 5124 mt 2846 5196 L
2869 5120 mt 2941 5120 L
2905 5084 mt 2905 5156 L
2928 5200 mt 3000 5200 L
2964 5164 mt 2964 5236 L
2987 5200 mt 3059 5200 L
3023 5164 mt 3023 5236 L
3046 5200 mt 3118 5200 L
3082 5164 mt 3082 5236 L
3106 5200 mt 3178 5200 L
3142 5164 mt 3142 5236 L
3165 5200 mt 3237 5200 L
3201 5164 mt 3201 5236 L
3224 5200 mt 3296 5200 L
3260 5164 mt 3260 5236 L
3283 5200 mt 3355 5200 L
3319 5164 mt 3319 5236 L
3342 5200 mt 3414 5200 L
3378 5164 mt 3378 5236 L
3401 5200 mt 3473 5200 L
3437 5164 mt 3437 5236 L
3461 5160 mt 3533 5160 L
3497 5124 mt 3497 5196 L
3520 5120 mt 3592 5120 L
3556 5084 mt 3556 5156 L
3579 5081 mt 3651 5081 L
3615 5045 mt 3615 5117 L
3638 5041 mt 3710 5041 L
3674 5005 mt 3674 5077 L
3697 5200 mt 3769 5200 L
3733 5164 mt 3733 5236 L
3756 5200 mt 3828 5200 L
3792 5164 mt 3792 5236 L
3816 5200 mt 3888 5200 L
3852 5164 mt 3852 5236 L
3875 5200 mt 3947 5200 L
3911 5164 mt 3911 5236 L
3934 5200 mt 4006 5200 L
3970 5164 mt 3970 5236 L
3993 5200 mt 4065 5200 L
4029 5164 mt 4029 5236 L
4052 5200 mt 4124 5200 L
4088 5164 mt 4088 5236 L
4111 5200 mt 4183 5200 L
4147 5164 mt 4147 5236 L
4171 5160 mt 4243 5160 L
4207 5124 mt 4207 5196 L
4230 5120 mt 4302 5120 L
4266 5084 mt 4266 5156 L
4289 5081 mt 4361 5081 L
4325 5045 mt 4325 5117 L
4348 5041 mt 4420 5041 L
4384 5005 mt 4384 5077 L
4407 5002 mt 4479 5002 L
4443 4966 mt 4443 5038 L
4466 4962 mt 4538 4962 L
4502 4926 mt 4502 4998 L
4526 4922 mt 4598 4922 L
4562 4886 mt 4562 4958 L
4585 4883 mt 4657 4883 L
4621 4847 mt 4621 4919 L
4644 4843 mt 4716 4843 L
4680 4807 mt 4680 4879 L
4703 5200 mt 4775 5200 L
4739 5164 mt 4739 5236 L
4762 5200 mt 4834 5200 L
4798 5164 mt 4798 5236 L
4821 5200 mt 4893 5200 L
4857 5164 mt 4857 5236 L
4881 5200 mt 4953 5200 L
4917 5164 mt 4917 5236 L
4940 5200 mt 5012 5200 L
4976 5164 mt 4976 5236 L
4999 5200 mt 5071 5200 L
5035 5164 mt 5035 5236 L
5058 5200 mt 5130 5200 L
5094 5164 mt 5094 5236 L
5117 5200 mt 5189 5200 L
5153 5164 mt 5153 5236 L
5176 5200 mt 5248 5200 L
5212 5164 mt 5212 5236 L
5236 5200 mt 5308 5200 L
5272 5164 mt 5272 5236 L
5295 5160 mt 5367 5160 L
5331 5124 mt 5331 5196 L
5354 5120 mt 5426 5120 L
5390 5084 mt 5390 5156 L
5413 5081 mt 5485 5081 L
5449 5045 mt 5449 5117 L
5472 5041 mt 5544 5041 L
5508 5005 mt 5508 5077 L
5531 5002 mt 5603 5002 L
5567 4966 mt 5567 5038 L
5591 4962 mt 5663 4962 L
5627 4926 mt 5627 4998 L
5650 4922 mt 5722 4922 L
5686 4886 mt 5686 4958 L
5709 4883 mt 5781 4883 L
5745 4847 mt 5745 4919 L
5768 4843 mt 5840 4843 L
5804 4807 mt 5804 4879 L
5827 4804 mt 5899 4804 L
5863 4768 mt 5863 4840 L
5886 4764 mt 5958 4764 L
5922 4728 mt 5922 4800 L
5946 4724 mt 6018 4724 L
5982 4688 mt 5982 4760 L
6005 4685 mt 6077 4685 L
6041 4649 mt 6041 4721 L
6064 4645 mt 6136 4645 L
6100 4609 mt 6100 4681 L
6123 4606 mt 6195 4606 L
6159 4570 mt 6159 4642 L
6182 4566 mt 6254 4566 L
6218 4530 mt 6218 4602 L
6241 4527 mt 6313 4527 L
6277 4491 mt 6277 4563 L
6301 4487 mt 6373 4487 L
6337 4451 mt 6337 4523 L
6360 4447 mt 6432 4447 L
6396 4411 mt 6396 4483 L
6419 4408 mt 6491 4408 L
6455 4372 mt 6455 4444 L
6478 4368 mt 6550 4368 L
6514 4332 mt 6514 4404 L
6537 4329 mt 6609 4329 L
6573 4293 mt 6573 4365 L
6596 4289 mt 6668 4289 L
6632 4253 mt 6632 4325 L
6656 4249 mt 6728 4249 L
6692 4213 mt 6692 4285 L
6715 4210 mt 6787 4210 L
6751 4174 mt 6751 4246 L
6774 4170 mt 6846 4170 L
6810 4134 mt 6810 4206 L
6833 4131 mt 6905 4131 L
6869 4095 mt 6869 4167 L
6892 4091 mt 6964 4091 L
6928 4055 mt 6928 4127 L
6951 4052 mt 7023 4052 L
6987 4016 mt 6987 4088 L
gs 1012 4052 6036 1149 rc
gr
gr

0 sg
%%IncludeResource: font Helvetica
/Helvetica /ISOLatin1Encoding 216 FMSR

3842 5559 mt 
(t \(s\)) s
 644 4835 mt  -90 rotate
(u) s
90 rotate
%%IncludeResource: font Helvetica
/Helvetica /ISOLatin1Encoding 168 FMSR

 752 4715 mt  -90 rotate
(3) s
90 rotate
%%IncludeResource: font Helvetica
/Helvetica /ISOLatin1Encoding 216 FMSR

 644 4622 mt  -90 rotate
(\(t\)) s
90 rotate
1 sg
0 1148 6035 0 0 -1148 1012 6930 4 MP
PP
-6035 0 0 1148 6035 0 0 -1148 1012 6930 5 MP stroke
4 w
DO
0 sg
1012 6930 mt 1012 5782 L
1012 5782 mt 1012 5782 L
1603 6930 mt 1603 5782 L
1603 5782 mt 1603 5782 L
2195 6930 mt 2195 5782 L
2195 5782 mt 2195 5782 L
2787 6930 mt 2787 5782 L
2787 5782 mt 2787 5782 L
3378 6930 mt 3378 5782 L
3378 5782 mt 3378 5782 L
3970 6930 mt 3970 5782 L
3970 5782 mt 3970 5782 L
4562 6930 mt 4562 5782 L
4562 5782 mt 4562 5782 L
5153 6930 mt 5153 5782 L
5153 5782 mt 5153 5782 L
5745 6930 mt 5745 5782 L
5745 5782 mt 5745 5782 L
6337 6930 mt 6337 5782 L
6337 5782 mt 6337 5782 L
6928 6930 mt 6928 5782 L
6928 5782 mt 6928 5782 L
1012 6930 mt 7047 6930 L
7047 6930 mt 7047 6930 L
1012 6656 mt 7047 6656 L
7047 6656 mt 7047 6656 L
1012 6383 mt 7047 6383 L
7047 6383 mt 7047 6383 L
1012 6110 mt 7047 6110 L
7047 6110 mt 7047 6110 L
1012 5836 mt 7047 5836 L
7047 5836 mt 7047 5836 L
SO
6 w
1012 6930 mt 7047 6930 L
1012 6930 mt 1012 5782 L
1012 6930 mt 1012 6869 L
%%IncludeResource: font Helvetica
/Helvetica /ISOLatin1Encoding 120 FMSR

 979 7075 mt 
(0) s
1603 6930 mt 1603 6869 L
1537 7075 mt 
(10) s
2195 6930 mt 2195 6869 L
2129 7075 mt 
(20) s
2787 6930 mt 2787 6869 L
2721 7075 mt 
(30) s
3378 6930 mt 3378 6869 L
3312 7075 mt 
(40) s
3970 6930 mt 3970 6869 L
3904 7075 mt 
(50) s
4562 6930 mt 4562 6869 L
4496 7075 mt 
(60) s
5153 6930 mt 5153 6869 L
5087 7075 mt 
(70) s
5745 6930 mt 5745 6869 L
5679 7075 mt 
(80) s
6337 6930 mt 6337 6869 L
6271 7075 mt 
(90) s
6928 6930 mt 6928 6869 L
6828 7075 mt 
(100) s
1012 6930 mt 1072 6930 L
 911 6974 mt 
(0) s
1012 6656 mt 1072 6656 L
 911 6700 mt 
(5) s
1012 6383 mt 1072 6383 L
 844 6427 mt 
(10) s
1012 6110 mt 1072 6110 L
 844 6154 mt 
(15) s
1012 5836 mt 1072 5836 L
 844 5880 mt 
(20) s
gs 1012 5782 6036 1149 rc
/c11 { 0.000000 1.000000 0.000000 sr} bdef
c11
59 -11 59 -11 59 -11 59 -11 59 -11 60 -11 59 -11 59 -11 
59 -11 59 -11 59 -11 60 -11 59 -10 59 -11 59 -11 59 -11 
59 -11 60 -11 59 -11 59 -11 59 -11 59 -11 59 -11 60 -11 
59 -11 59 -11 59 -11 59 -10 59 -11 60 -11 59 -11 59 -11 
59 -11 59 -11 59 -11 60 -11 59 -11 59 -11 59 161 59 -13 
59 -14 60 -14 59 -13 59 -14 59 -14 59 -13 59 -14 60 -14 
59 -13 59 -14 59 -14 59 -13 59 -14 60 -14 59 -13 59 196 
59 -19 59 -18 59 -18 60 -18 59 -18 59 -19 59 -18 59 -18 
59 -18 60 -19 59 -18 59 -18 59 282 59 -27 59 -27 60 -28 
59 -27 59 -27 59 -28 59 -27 59 -27 60 -28 59 -27 59 -27 
59 546 59 -54 59 -55 60 -55 59 -54 59 -55 59 -55 59 -54 
59 -55 60 -55 59 -54 59 -55 59 -55 59 -54 59 -55 60 -55 
59 -54 59 -55 59 -55 59 -54 59 -55 1012 6875 102 MP stroke
gr

c11
gs 939 5709 6122 1240 rc
0 j
36 47 -36 47 -36 -47 36 -47 1012 6922 5 MP
DP
36 47 -36 47 -36 -47 36 -47 1071 6867 5 MP
DP
36 47 -36 47 -36 -47 36 -47 1130 6813 5 MP
DP
36 47 -36 47 -36 -47 36 -47 1189 6758 5 MP
DP
36 47 -36 47 -36 -47 36 -47 1248 6703 5 MP
DP
36 47 -36 47 -36 -47 36 -47 1307 6649 5 MP
DP
36 47 -36 47 -36 -47 36 -47 1367 6594 5 MP
DP
36 47 -36 47 -36 -47 36 -47 1426 6539 5 MP
DP
36 47 -36 47 -36 -47 36 -47 1485 6485 5 MP
DP
36 47 -36 47 -36 -47 36 -47 1544 6430 5 MP
DP
36 47 -36 47 -36 -47 36 -47 1603 6375 5 MP
DP
36 47 -36 47 -36 -47 36 -47 1662 6321 5 MP
DP
36 47 -36 47 -36 -47 36 -47 1722 6266 5 MP
DP
36 47 -36 47 -36 -47 36 -47 1781 6211 5 MP
DP
36 47 -36 47 -36 -47 36 -47 1840 6157 5 MP
DP
36 47 -36 47 -36 -47 36 -47 1899 6102 5 MP
DP
36 47 -36 47 -36 -47 36 -47 1958 6047 5 MP
DP
36 47 -36 47 -36 -47 36 -47 2017 5993 5 MP
DP
36 47 -36 47 -36 -47 36 -47 2077 5938 5 MP
DP
36 47 -36 47 -36 -47 36 -47 2136 5883 5 MP
DP
36 47 -36 47 -36 -47 36 -47 2195 5829 5 MP
DP
36 47 -36 47 -36 -47 36 -47 2254 6375 5 MP
DP
36 47 -36 47 -36 -47 36 -47 2313 6348 5 MP
DP
36 47 -36 47 -36 -47 36 -47 2372 6321 5 MP
DP
36 47 -36 47 -36 -47 36 -47 2432 6293 5 MP
DP
36 47 -36 47 -36 -47 36 -47 2491 6266 5 MP
DP
36 47 -36 47 -36 -47 36 -47 2550 6239 5 MP
DP
36 47 -36 47 -36 -47 36 -47 2609 6211 5 MP
DP
36 47 -36 47 -36 -47 36 -47 2668 6184 5 MP
DP
36 47 -36 47 -36 -47 36 -47 2727 6157 5 MP
DP
36 47 -36 47 -36 -47 36 -47 2787 6129 5 MP
DP
36 47 -36 47 -36 -47 36 -47 2846 6102 5 MP
DP
36 47 -36 47 -36 -47 36 -47 2905 6075 5 MP
DP
36 47 -36 47 -36 -47 36 -47 2964 6357 5 MP
DP
36 47 -36 47 -36 -47 36 -47 3023 6339 5 MP
DP
36 47 -36 47 -36 -47 36 -47 3082 6321 5 MP
DP
36 47 -36 47 -36 -47 36 -47 3142 6302 5 MP
DP
36 47 -36 47 -36 -47 36 -47 3201 6284 5 MP
DP
36 47 -36 47 -36 -47 36 -47 3260 6266 5 MP
DP
36 47 -36 47 -36 -47 36 -47 3319 6248 5 MP
DP
36 47 -36 47 -36 -47 36 -47 3378 6229 5 MP
DP
36 47 -36 47 -36 -47 36 -47 3437 6211 5 MP
DP
36 47 -36 47 -36 -47 36 -47 3497 6193 5 MP
DP
36 47 -36 47 -36 -47 36 -47 3556 6175 5 MP
DP
36 47 -36 47 -36 -47 36 -47 3615 6157 5 MP
DP
36 47 -36 47 -36 -47 36 -47 3674 6138 5 MP
DP
36 47 -36 47 -36 -47 36 -47 3733 6334 5 MP
DP
36 47 -36 47 -36 -47 36 -47 3792 6321 5 MP
DP
36 47 -36 47 -36 -47 36 -47 3852 6307 5 MP
DP
36 47 -36 47 -36 -47 36 -47 3911 6293 5 MP
DP
36 47 -36 47 -36 -47 36 -47 3970 6280 5 MP
DP
36 47 -36 47 -36 -47 36 -47 4029 6266 5 MP
DP
36 47 -36 47 -36 -47 36 -47 4088 6252 5 MP
DP
36 47 -36 47 -36 -47 36 -47 4147 6239 5 MP
DP
36 47 -36 47 -36 -47 36 -47 4207 6225 5 MP
DP
36 47 -36 47 -36 -47 36 -47 4266 6211 5 MP
DP
36 47 -36 47 -36 -47 36 -47 4325 6198 5 MP
DP
36 47 -36 47 -36 -47 36 -47 4384 6184 5 MP
DP
36 47 -36 47 -36 -47 36 -47 4443 6170 5 MP
DP
36 47 -36 47 -36 -47 36 -47 4502 6157 5 MP
DP
36 47 -36 47 -36 -47 36 -47 4562 6143 5 MP
DP
36 47 -36 47 -36 -47 36 -47 4621 6129 5 MP
DP
36 47 -36 47 -36 -47 36 -47 4680 6116 5 MP
DP
36 47 -36 47 -36 -47 36 -47 4739 6277 5 MP
DP
36 47 -36 47 -36 -47 36 -47 4798 6266 5 MP
DP
36 47 -36 47 -36 -47 36 -47 4857 6255 5 MP
DP
36 47 -36 47 -36 -47 36 -47 4917 6244 5 MP
DP
36 47 -36 47 -36 -47 36 -47 4976 6233 5 MP
DP
36 47 -36 47 -36 -47 36 -47 5035 6222 5 MP
DP
36 47 -36 47 -36 -47 36 -47 5094 6211 5 MP
DP
36 47 -36 47 -36 -47 36 -47 5153 6200 5 MP
DP
36 47 -36 47 -36 -47 36 -47 5212 6189 5 MP
DP
36 47 -36 47 -36 -47 36 -47 5272 6178 5 MP
DP
36 47 -36 47 -36 -47 36 -47 5331 6167 5 MP
DP
36 47 -36 47 -36 -47 36 -47 5390 6157 5 MP
DP
36 47 -36 47 -36 -47 36 -47 5449 6146 5 MP
DP
36 47 -36 47 -36 -47 36 -47 5508 6135 5 MP
DP
36 47 -36 47 -36 -47 36 -47 5567 6124 5 MP
DP
36 47 -36 47 -36 -47 36 -47 5627 6113 5 MP
DP
36 47 -36 47 -36 -47 36 -47 5686 6102 5 MP
DP
36 47 -36 47 -36 -47 36 -47 5745 6091 5 MP
DP
36 47 -36 47 -36 -47 36 -47 5804 6080 5 MP
DP
36 47 -36 47 -36 -47 36 -47 5863 6069 5 MP
DP
36 47 -36 47 -36 -47 36 -47 5922 6058 5 MP
DP
36 47 -36 47 -36 -47 36 -47 5982 6047 5 MP
DP
36 47 -36 47 -36 -47 36 -47 6041 6036 5 MP
DP
36 47 -36 47 -36 -47 36 -47 6100 6025 5 MP
DP
36 47 -36 47 -36 -47 36 -47 6159 6014 5 MP
DP
36 47 -36 47 -36 -47 36 -47 6218 6003 5 MP
DP
36 47 -36 47 -36 -47 36 -47 6277 5993 5 MP
DP
36 47 -36 47 -36 -47 36 -47 6337 5982 5 MP
DP
36 47 -36 47 -36 -47 36 -47 6396 5971 5 MP
DP
36 47 -36 47 -36 -47 36 -47 6455 5960 5 MP
DP
36 47 -36 47 -36 -47 36 -47 6514 5949 5 MP
DP
36 47 -36 47 -36 -47 36 -47 6573 5938 5 MP
DP
36 47 -36 47 -36 -47 36 -47 6632 5927 5 MP
DP
36 47 -36 47 -36 -47 36 -47 6692 5916 5 MP
DP
36 47 -36 47 -36 -47 36 -47 6751 5905 5 MP
DP
36 47 -36 47 -36 -47 36 -47 6810 5894 5 MP
DP
36 47 -36 47 -36 -47 36 -47 6869 5883 5 MP
DP
36 47 -36 47 -36 -47 36 -47 6928 5872 5 MP
DP
36 47 -36 47 -36 -47 36 -47 6987 5861 5 MP
DP
gs 1012 5782 6036 1149 rc
gr
gr

0 sg
%%IncludeResource: font Helvetica
/Helvetica /ISOLatin1Encoding 216 FMSR

3842 7289 mt 
(t \(s\)) s
 644 6565 mt  -90 rotate
(u) s
90 rotate
%%IncludeResource: font Helvetica
/Helvetica /ISOLatin1Encoding 168 FMSR

 752 6445 mt  -90 rotate
(4) s
90 rotate
%%IncludeResource: font Helvetica
/Helvetica /ISOLatin1Encoding 216 FMSR

 644 6352 mt  -90 rotate
(\(t\)) s
90 rotate

end %%Color Dict

eplot
%%EndObject

epage
end

showpage

%%Trailer
%%EOF
